<svg width="13" height="12" viewBox="0 0 13 12" fill="none" xmlns="http://www.w3.org/2000/svg">
<path d="M8.5 7.33073L11.8333 3.9974L8.5 0.664062" stroke="#0060AF" stroke-width="1.2" stroke-linecap="round" stroke-linejoin="round"/>
<path d="M1.16675 11.3333V6.66667C1.16675 5.95942 1.4477 5.28115 1.9478 4.78105C2.44789 4.28095 3.12617 4 3.83341 4H11.8334" stroke="#0060AF" stroke-width="1.2" stroke-linecap="round" stroke-linejoin="round"/>
</svg>
