<svg width="40" height="40" viewBox="0 0 40 40" fill="none" xmlns="http://www.w3.org/2000/svg">
<circle cx="20" cy="20" r="18" fill="#F5F5F5"/>
<path fill-rule="evenodd" clip-rule="evenodd" d="M28 13H24.83L23.59 11.65C23.22 11.24 22.68 11 22.12 11H17.88C17.32 11 16.78 11.24 16.4 11.65L15.17 13H12C10.9 13 10 13.9 10 15V27C10 28.1 10.9 29 12 29H28C29.1 29 30 28.1 30 27V15C30 13.9 29.1 13 28 13ZM20 18C18.3431 18 17 19.3431 17 21C17 22.6569 18.3431 24 20 24C21.6569 24 23 22.6569 23 21C23 19.3431 21.6569 18 20 18ZM15 21C15 23.76 17.24 26 20 26C22.76 26 25 23.76 25 21C25 18.24 22.76 16 20 16C17.24 16 15 18.24 15 21Z" fill="#0060AF"/>
</svg>
