<svg width="21" height="20" viewBox="0 0 21 20" fill="none" xmlns="http://www.w3.org/2000/svg">
<path fill-rule="evenodd" clip-rule="evenodd" d="M8.58454 1.52211C10.4127 1.10906 12.3255 1.29803 14.0375 2.06086C14.3675 2.20792 14.7543 2.05958 14.9013 1.72955C15.0484 1.39953 14.9 1.01278 14.57 0.865724C12.6003 -0.0119393 10.3996 -0.229366 8.29619 0.24587C6.19278 0.721106 4.29935 1.86354 2.89828 3.5028C1.49721 5.14205 0.663562 7.19029 0.521677 9.34203C0.379791 11.4938 0.937266 13.6338 2.11096 15.4428C3.28465 17.2518 5.01168 18.633 7.03447 19.3803C9.05726 20.1276 11.2674 20.201 13.3354 19.5896C15.4033 18.9782 17.2182 17.7147 18.5093 15.9875C19.8005 14.2604 20.4988 12.1618 20.5 10.0053V9.14553C20.5 8.78423 20.2071 8.49133 19.8458 8.49133C19.4845 8.49133 19.1916 8.78423 19.1916 9.14553V10.005C19.1905 11.8792 18.5836 13.703 17.4614 15.2041C16.3391 16.7053 14.7617 17.8035 12.9644 18.3349C11.167 18.8663 9.24603 18.8025 7.4879 18.153C5.72978 17.5034 4.22872 16.303 3.20859 14.7306C2.18847 13.1583 1.70393 11.2983 1.82725 9.42812C1.95057 7.55791 2.67514 5.77767 3.8929 4.3529C5.11065 2.92813 6.75634 1.93517 8.58454 1.52211ZM20.3086 2.9911C20.564 2.73549 20.5637 2.32127 20.3081 2.06592C20.0525 1.81056 19.6383 1.81077 19.3829 2.06638L10.4998 10.9585L8.15884 8.61755C7.90335 8.36206 7.48913 8.36206 7.23365 8.61755C6.97817 8.87303 6.97817 9.28725 7.23365 9.54273L10.0374 12.3465C10.1601 12.4692 10.3266 12.5381 10.5001 12.5381C10.6737 12.538 10.8401 12.469 10.9628 12.3462L20.3086 2.9911Z" fill="#0060AF"/>
</svg>
