<svg width="16" height="16" viewBox="0 0 16 16" fill="none" xmlns="http://www.w3.org/2000/svg">
<g clip-path="url(#clip0_3613_30871)">
<g opacity="0.8">
<path d="M12.7144 12.714C15.3179 10.1106 15.3179 5.88945 12.7144 3.28595C10.1109 0.682459 5.88981 0.682459 3.28631 3.28595C0.682815 5.88945 0.682815 10.1106 3.28631 12.714C5.88981 15.3175 10.1109 15.3175 12.7144 12.714Z" stroke="#0060AF" stroke-width="0.933333" stroke-linecap="round" stroke-linejoin="round"/>
<path d="M8.0003 5.17157V10.8284" stroke="#0060AF" stroke-width="0.933333" stroke-linecap="round" stroke-linejoin="round"/>
<path d="M5.17188 8H10.8287" stroke="#0060AF" stroke-width="0.933333" stroke-linecap="round" stroke-linejoin="round"/>
</g>
</g>
<defs>
<clipPath id="clip0_3613_30871">
<rect width="16" height="16" fill="white"/>
</clipPath>
</defs>
</svg>
