<svg width="48" height="48" viewBox="0 0 48 48" fill="none" xmlns="http://www.w3.org/2000/svg">
<rect width="48" height="48" rx="24" fill="#EEFAF8"/>
<path d="M18.6996 29.3004C18.5829 29.3004 18.4706 29.2754 18.3626 29.2254C18.2539 29.1754 18.1579 29.1087 18.0746 29.0254L13.9496 24.9004C13.7996 24.7504 13.7246 24.5711 13.7246 24.3624C13.7246 24.1544 13.7996 23.9754 13.9496 23.8254C14.0829 23.6754 14.2539 23.6004 14.4626 23.6004C14.6706 23.6004 14.8496 23.6754 14.9996 23.8254L18.7246 27.5504L19.0496 27.2004L20.1246 28.2504L19.3246 29.0254C19.2413 29.1087 19.1453 29.1754 19.0366 29.2254C18.9286 29.2754 18.8163 29.3004 18.6996 29.3004ZM24.3496 29.2754C24.2329 29.2754 24.1206 29.2544 24.0126 29.2124C23.9039 29.1711 23.8079 29.1087 23.7246 29.0254L19.5746 24.8754C19.4246 24.7254 19.3496 24.5461 19.3496 24.3374C19.3496 24.1294 19.4246 23.9504 19.5746 23.8004C19.7246 23.6671 19.8996 23.6004 20.0996 23.6004C20.2996 23.6004 20.4746 23.6671 20.6246 23.8004L24.3496 27.5254L33.0246 18.8504C33.1746 18.7171 33.3496 18.6504 33.5496 18.6504C33.7496 18.6504 33.9246 18.7171 34.0746 18.8504C34.2246 19.0004 34.2996 19.1794 34.2996 19.3874C34.2996 19.5961 34.2246 19.7754 34.0746 19.9254L24.9746 29.0254C24.8913 29.1087 24.7956 29.1711 24.6876 29.2124C24.5789 29.2544 24.4663 29.2754 24.3496 29.2754ZM23.9996 24.3504L22.9246 23.3004L27.3496 18.8754C27.4996 18.7254 27.6786 18.6504 27.8866 18.6504C28.0953 18.6504 28.2746 18.7254 28.4246 18.8754C28.5746 19.0254 28.6496 19.2004 28.6496 19.4004C28.6496 19.6004 28.5746 19.7754 28.4246 19.9254L23.9996 24.3504Z" fill="#00B69B"/>
</svg>
