<svg width="17" height="16" viewBox="0 0 17 16" fill="none" xmlns="http://www.w3.org/2000/svg">
<g opacity="0.7">
<path d="M3.16699 4.3999H4.36699H13.967" stroke="#ED1C24" stroke-width="1.4" stroke-linecap="round" stroke-linejoin="round"/>
<path d="M6.16719 4.4V3.2C6.16719 2.88174 6.29362 2.57652 6.51866 2.35147C6.7437 2.12643 7.04893 2 7.36719 2H9.76719C10.0854 2 10.3907 2.12643 10.6157 2.35147C10.8408 2.57652 10.9672 2.88174 10.9672 3.2V4.4M12.7672 4.4V12.8C12.7672 13.1183 12.6408 13.4235 12.4157 13.6485C12.1907 13.8736 11.8854 14 11.5672 14H5.56719C5.24893 14 4.9437 13.8736 4.71866 13.6485C4.49362 13.4235 4.36719 13.1183 4.36719 12.8V4.4H12.7672Z" stroke="#ED1C24" stroke-width="1.2" stroke-linecap="round" stroke-linejoin="round"/>
<path d="M7.36719 7.3999V10.9999" stroke="#ED1C24" stroke-width="1.2" stroke-linecap="round" stroke-linejoin="round"/>
<path d="M9.7666 7.3999V10.9999" stroke="#ED1C24" stroke-width="1.2" stroke-linecap="round" stroke-linejoin="round"/>
</g>
</svg>
