<svg xmlns="http://www.w3.org/2000/svg" xmlns:xlink="http://www.w3.org/1999/xlink" width="1088.239" height="316.585" viewBox="0 0 1088.239 316.585">
  <defs>
    <linearGradient id="linear-gradient" x1="0.886" y1="0.9" x2="0.148" y2="0.153" gradientUnits="objectBoundingBox">
      <stop offset="0" stop-color="#e50019"/>
      <stop offset="1" stop-color="#48b7ff"/>
    </linearGradient>
    <linearGradient id="linear-gradient-2" x1="-0.003" y1="0.465" x2="0.783" y2="0.736" gradientUnits="objectBoundingBox">
      <stop offset="0" stop-color="#fe0"/>
      <stop offset="1" stop-color="#ff4600"/>
    </linearGradient>
  </defs>
  <g id="logo-long-mobism" transform="translate(-966.038 525.965)">
    <g id="Group_4249" data-name="Group 4249" transform="translate(966.038 -525.966)">
      <path id="Subtraction_95" data-name="Subtraction 95" d="M118.338,236.675A118.369,118.369,0,0,1,72.276,9.3a118.333,118.333,0,0,1,163.257,92.5h-46.57a72.528,72.528,0,1,0,0,33.085h46.57a118.247,118.247,0,0,1-117.2,101.795Z" transform="translate(8.978 95.631) rotate(-21)" fill="#f3b012" opacity="0.81"/>
      <path id="Subtraction_97" data-name="Subtraction 97" d="M118.338,236.675A118.369,118.369,0,0,1,72.276,9.3a118.333,118.333,0,0,1,163.257,92.5h-46.57a72.528,72.528,0,1,0,0,33.085h46.57a118.247,118.247,0,0,1-117.2,101.795Z" transform="translate(0 84.408) rotate(-21)" fill="url(#linear-gradient)"/>
      <path id="Union_50" data-name="Union 50" d="M.153,77.484,0,77.5,111.741,0s22.906,23.742,27.845,61C112.786,65.249,5.944,76.856.238,77.475c4.041.5,110.417,13.646,139.344,16.687-4.931,37.26-27.841,61-27.841,61Z" transform="translate(104.174 88.072) rotate(-21)" fill="url(#linear-gradient-2)"/>
    </g>
    <g id="Group_4684" data-name="Group 4684" transform="translate(1293.886 -332)">
      <path id="Path_6233" data-name="Path 6233" d="M154.718,14.872V30.5H169.96V14.872Z" transform="translate(244.815 -100.817)" fill="#e50019"/>
      <path id="Path_6234" data-name="Path 6234" d="M187.16,65.646c0,9.477-1.114,17.275-3.308,23.1-2.214,6.068-9.8,19.77-46.6,19.77s-44.385-13.7-46.6-19.77c-2.195-5.829-3.3-13.627-3.3-23.1s1.107-17.268,3.3-23.1c2.217-6.071,9.8-19.767,46.6-19.767s44.388,13.7,46.6,19.767c2.195,5.833,3.308,13.624,3.308,23.1ZM167.893,47.325h0a11.914,11.914,0,0,0-7.672-6.988c-3.941-1.265-10.868-1.995-22.972-2.172-12.1.178-19.031.907-22.969,2.172a11.9,11.9,0,0,0-7.676,6.988c-1.123,2.64-2.4,9.063-2.4,18.321s1.281,15.684,2.4,18.324a11.9,11.9,0,0,0,7.676,6.988c3.938,1.268,10.865,2,22.969,2.172,12.1-.174,19.031-.9,22.972-2.172a11.914,11.914,0,0,0,7.672-6.988c1.13-2.64,2.4-9.063,2.4-18.324s-1.272-15.68-2.4-18.321Z" transform="translate(94.726 -83.205)" fill="#004fa1"/>
      <path id="Path_6236" data-name="Path 6236" d="M154.719,22.994v83.847h15.24V22.994Z" transform="translate(244.816 -82.723)" fill="#004fa1"/>
      <path id="Path_6237" data-name="Path 6237" d="M214.25,68.2c-2.217-6.071-9.8-19.767-46.6-19.767-14.092,0-23.876,2.011-30.731,4.829V11.261H121.7V133.2h15.219v-3.854c6.856,2.818,16.639,4.832,30.731,4.832,36.8,0,44.385-13.7,46.6-19.763,2.195-5.833,3.3-13.628,3.3-23.1s-1.107-17.268-3.3-23.1Zm-15.961,41.425h0a11.886,11.886,0,0,1-7.672,6.985c-3.941,1.268-10.868,2-22.969,2.172-12.1-.174-16.875-.9-20.816-2.172a11.887,11.887,0,0,1-7.672-6.985c-.888-2.085-1.872-6.543-2.243-12.885V85.867c.371-6.342,1.356-10.8,2.243-12.882a11.912,11.912,0,0,1,7.672-6.991c3.941-1.262,8.712-1.995,20.816-2.169,12.1.174,19.027.907,22.969,2.169a11.911,11.911,0,0,1,7.672,6.991c1.13,2.64,2.4,9.06,2.4,18.321s-1.275,15.684-2.4,18.324Z" transform="translate(171.258 -108.864)" fill="#004fa1"/>
      <path id="Path_6238" data-name="Path 6238" d="M1.445,52.591H18.92q0,2.786.084,3.377.169,9.624,1.309,12.705a8.311,8.311,0,0,0,4.854,4.685q6.078,2.617,41.282,2.617,25.58,0,36.639-2.533,10.131-2.195,10.131-16.293,0-7.345-1.646-10.848a9.136,9.136,0,0,0-5.361-4.854,42.705,42.705,0,0,0-11.819-1.688q-7.6-.253-50.23-.253-14.6,0-23.553-2.744T6.848,27.856Q1.191,20.764,1.191,6.5q0-15.871,9.033-23.131a31.222,31.222,0,0,1,9.751-5.487,72.812,72.812,0,0,1,14.816-2.955,309,309,0,0,1,36.47-1.857q19.67,0,30.56,2.026t17.053,7.091a20.942,20.942,0,0,1,7.007,9.582q1.857,5.445,2.026,17.433h-17.9V6.581q0-8.273-1.773-11.059-2.448-4.052-11.144-5.909T70.585-12.244Q48.3-12.244,37.45-10.6T22.888-5.406Q19.426-1.861,19.426,6.5q0,7.682,1.731,10.721t6.627,4.559q7.6,2.448,29.716,2.617,7.6.084,37.567.169,12.663.084,19.628,2.49a23.514,23.514,0,0,1,11.355,8.231q5.4,7.26,5.4,20.6,0,12.748-4.39,20.092-5.4,8.864-19.754,11.819T56.572,90.749q-19.248,0-28.534-1.182T13.179,85.262Q6.425,81.378,3.893,75.6T1.36,58.585Q1.36,58.078,1.445,52.591ZM145.3-26.6h32.84l61.712,96.409,60.7-96.409h33.009V90.327h-17.9V-10.64h-4.305L247.025,90.327H232.842l-65-100.967H163.2V90.327H145.3Z" transform="translate(426.835 -64.491)" fill="#e50019"/>
      <path id="Path_6239" data-name="Path 6239" d="M145.3-26.6h32.84l61.712,96.409,60.7-96.409h33.009V90.327h-17.9V-10.64h-4.305L247.025,90.327H232.842l-65-100.967H163.2V90.327H145.3Z" transform="translate(-159.461 -64.491)" fill="#004fa1"/>
    </g>
  </g>
</svg>
