<svg width="22" height="22" viewBox="0 0 22 22" fill="none" xmlns="http://www.w3.org/2000/svg">
<path d="M11 20.5C16.2467 20.5 20.5 16.2467 20.5 11C20.5 5.75329 16.2467 1.5 11 1.5C5.7533 1.5 1.5 5.75329 1.5 11C1.5 16.2467 5.7533 20.5 11 20.5Z" stroke="#0060AF" stroke-width="1.2" stroke-linecap="round" stroke-linejoin="round"/>
<path d="M13.8504 8.14844L8.15039 13.8484" stroke="#0060AF" stroke-width="1.2" stroke-linecap="round" stroke-linejoin="round"/>
<path d="M8.15039 8.14844L13.8504 13.8484" stroke="#0060AF" stroke-width="1.2" stroke-linecap="round" stroke-linejoin="round"/>
</svg>
