<svg width="20" height="20" viewBox="0 0 20 20" fill="none" xmlns="http://www.w3.org/2000/svg">
<path d="M10.3747 1.79745C10.2662 1.7129 10.1326 1.66699 9.99515 1.66699C9.85765 1.66699 9.72409 1.7129 9.61565 1.79745L0.833984 8.64495L1.5936 9.60561L2.66732 8.76839V16.3333C2.66796 16.6573 2.79694 16.9678 3.02601 17.1969C3.25508 17.4259 3.56558 17.5549 3.88954 17.5556H16.1118C16.4357 17.5549 16.7462 17.4259 16.9753 17.1969C17.2044 16.9678 17.3333 16.6573 17.334 16.3333V8.77389L18.4077 9.61111L19.1673 8.65045L10.3747 1.79745ZM11.2229 16.3333H8.77843V11.4444H11.2229V16.3333ZM12.4451 16.3333V11.4444C12.4448 11.1204 12.3159 10.8097 12.0868 10.5806C11.8576 10.3514 11.5469 10.2225 11.2229 10.2222H8.77843C8.45437 10.2225 8.14368 10.3514 7.91454 10.5806C7.6854 10.8097 7.55653 11.1204 7.55621 11.4444V16.3333H3.88954V7.81567L10.0007 3.05511L16.1118 7.82178V16.3333H12.4451Z" fill="black"/>
</svg>
