<svg width="22" height="22" viewBox="0 0 22 22" fill="none" xmlns="http://www.w3.org/2000/svg">
<path fill-rule="evenodd" clip-rule="evenodd" d="M11.0008 1.69687C5.86453 1.69687 1.70078 5.86063 1.70078 10.9969C1.70078 16.1331 5.86453 20.2969 11.0008 20.2969C16.137 20.2969 20.3008 16.1331 20.3008 10.9969C20.3008 5.86063 16.137 1.69687 11.0008 1.69687ZM0.300781 10.9969C0.300781 5.08743 5.09133 0.296875 11.0008 0.296875C16.9102 0.296875 21.7008 5.08743 21.7008 10.9969C21.7008 16.9063 16.9102 21.6969 11.0008 21.6969C5.09133 21.6969 0.300781 16.9063 0.300781 10.9969Z" fill="#212121" fill-opacity="0.85"/>
<path fill-rule="evenodd" clip-rule="evenodd" d="M12.9594 6.3908C13.2942 6.19748 13.7224 6.31215 13.9157 6.64694L19.6557 16.5869C19.849 16.9217 19.7343 17.3499 19.3995 17.5432C19.0648 17.7365 18.6366 17.6218 18.4433 17.287L12.7033 7.34704C12.51 7.01226 12.6247 6.58413 12.9594 6.3908Z" fill="#212121" fill-opacity="0.85"/>
<path fill-rule="evenodd" clip-rule="evenodd" d="M7.99219 6.99687C7.99219 6.61028 8.30559 6.29688 8.69219 6.29688H20.1722C20.5588 6.29688 20.8722 6.61028 20.8722 6.99687C20.8722 7.38347 20.5588 7.69687 20.1722 7.69687H8.69219C8.30559 7.69687 7.99219 7.38347 7.99219 6.99687Z" fill="#212121" fill-opacity="0.85"/>
<path fill-rule="evenodd" clip-rule="evenodd" d="M12.4699 0.453304C12.8046 0.646632 12.9193 1.07476 12.726 1.40954L6.98599 11.3495C6.79266 11.6843 6.36454 11.799 6.02975 11.6057C5.69496 11.4124 5.58029 10.9842 5.77362 10.6494L11.5136 0.70944C11.7069 0.374652 12.1351 0.259976 12.4699 0.453304Z" fill="#212121" fill-opacity="0.85"/>
<path fill-rule="evenodd" clip-rule="evenodd" d="M2.60006 4.4533C2.93485 4.25998 3.36298 4.37465 3.5563 4.70944L9.2963 14.6494C9.48963 14.9842 9.37496 15.4124 9.04017 15.6057C8.70538 15.799 8.27726 15.6843 8.08393 15.3495L2.34393 5.40954C2.1506 5.07476 2.26528 4.64663 2.60006 4.4533Z" fill="#212121" fill-opacity="0.85"/>
<path fill-rule="evenodd" clip-rule="evenodd" d="M1.13281 14.9969C1.13281 14.6103 1.44621 14.2969 1.83281 14.2969H13.3128C13.6994 14.2969 14.0128 14.6103 14.0128 14.9969C14.0128 15.3835 13.6994 15.6969 13.3128 15.6969H1.83281C1.44621 15.6969 1.13281 15.3835 1.13281 14.9969Z" fill="#212121" fill-opacity="0.85"/>
<path fill-rule="evenodd" clip-rule="evenodd" d="M15.9699 10.3908C16.3046 10.5841 16.4193 11.0123 16.226 11.347L10.486 21.287C10.2927 21.6218 9.86454 21.7365 9.52975 21.5432C9.19496 21.3499 9.08029 20.9217 9.27362 20.5869L15.0136 10.6469C15.2069 10.3122 15.6351 10.1975 15.9699 10.3908Z" fill="#212121" fill-opacity="0.85"/>
</svg>
