<svg width="23" height="22" viewBox="0 0 23 22" fill="none" xmlns="http://www.w3.org/2000/svg">
<path d="M11.5 1V5" stroke="#0060AF" stroke-width="1.4" stroke-linecap="round" stroke-linejoin="round"/>
<path d="M11.5 17V21" stroke="#0060AF" stroke-width="1.4" stroke-linecap="round" stroke-linejoin="round"/>
<path d="M4.42969 3.92969L7.25968 6.75969" stroke="#0060AF" stroke-width="1.4" stroke-linecap="round" stroke-linejoin="round"/>
<path d="M15.7402 15.2422L18.5702 18.0722" stroke="#0060AF" stroke-width="1.4" stroke-linecap="round" stroke-linejoin="round"/>
<path d="M1.5 11H5.5" stroke="#0060AF" stroke-width="1.4" stroke-linecap="round" stroke-linejoin="round"/>
<path d="M17.5 11H21.5" stroke="#0060AF" stroke-width="1.4" stroke-linecap="round" stroke-linejoin="round"/>
<path d="M4.42969 18.0722L7.25968 15.2422" stroke="#0060AF" stroke-width="1.4" stroke-linecap="round" stroke-linejoin="round"/>
<path d="M15.7402 6.75969L18.5702 3.92969" stroke="#0060AF" stroke-width="1.4" stroke-linecap="round" stroke-linejoin="round"/>
</svg>
