<svg width="18" height="18" viewBox="0 0 18 18" fill="none" xmlns="http://www.w3.org/2000/svg">
<path fill-rule="evenodd" clip-rule="evenodd" d="M13.7426 1.93333C12.2088 1.08545 10.4411 0.758998 8.70564 1.00316C6.97318 1.24691 5.36665 2.04614 4.12724 3.2807L1.24967 5.98463V2.33325C1.24967 2.01109 0.988507 1.74992 0.666341 1.74992C0.344175 1.74992 0.0830078 2.01109 0.0830078 2.33325V7.33325C0.0830074 7.33657 0.0830351 7.33989 0.083091 7.3432C0.0844584 7.42443 0.102696 7.50553 0.137981 7.58079C0.151981 7.61065 0.168664 7.6396 0.188042 7.66727C0.215011 7.70581 0.246521 7.74095 0.281796 7.7719C0.317899 7.80362 0.357059 7.83016 0.398276 7.85148C0.478539 7.89308 0.569695 7.91658 0.666341 7.91658H5.66634C5.98851 7.91658 6.24967 7.65542 6.24967 7.33325C6.24967 7.01109 5.98851 6.74992 5.66634 6.74992H2.13895L4.93246 4.12498L4.94514 4.1127C6.0064 3.05324 7.38323 2.36738 8.86818 2.15845C10.3531 1.94953 11.8658 2.22886 13.1782 2.95437C14.4905 3.67987 15.5316 4.81224 16.1445 6.18086C16.7573 7.54949 16.9088 9.08021 16.5761 10.5424C16.2433 12.0046 15.4444 13.3191 14.2996 14.2877C13.1549 15.2564 11.7264 15.8267 10.2293 15.9129C8.73216 15.9991 7.2476 15.5963 5.99928 14.7654C4.75096 13.9345 3.8065 12.7204 3.3082 11.306C3.20114 11.0022 2.86803 10.8426 2.56417 10.9497C2.26031 11.0567 2.10077 11.3899 2.20782 11.6937C2.79018 13.3466 3.89395 14.7655 5.35283 15.7366C6.81171 16.7077 8.54667 17.1783 10.2963 17.0776C12.0459 16.9769 13.7154 16.3104 15.0533 15.1783C16.3911 14.0463 17.3248 12.5101 17.7137 10.8013C18.1025 9.09245 17.9255 7.30353 17.2093 5.70405C16.493 4.10458 15.2764 2.78121 13.7426 1.93333Z" fill="#212121" fill-opacity="0.85"/>
</svg>
