<svg width="22" height="22" viewBox="0 0 22 22" fill="none" xmlns="http://www.w3.org/2000/svg">
<path d="M11 1V5" stroke="#299EFD" stroke-width="1.4" stroke-linecap="round" stroke-linejoin="round"/>
<path d="M11 17V21" stroke="#299EFD" stroke-width="1.4" stroke-linecap="round" stroke-linejoin="round"/>
<path d="M3.92969 3.92969L6.75968 6.75969" stroke="#299EFD" stroke-width="1.4" stroke-linecap="round" stroke-linejoin="round"/>
<path d="M15.2402 15.2422L18.0702 18.0722" stroke="#299EFD" stroke-width="1.4" stroke-linecap="round" stroke-linejoin="round"/>
<path d="M1 11H5" stroke="#299EFD" stroke-width="1.4" stroke-linecap="round" stroke-linejoin="round"/>
<path d="M17 11H21" stroke="#299EFD" stroke-width="1.4" stroke-linecap="round" stroke-linejoin="round"/>
<path d="M3.92969 18.0722L6.75968 15.2422" stroke="#299EFD" stroke-width="1.4" stroke-linecap="round" stroke-linejoin="round"/>
<path d="M15.2402 6.75969L18.0702 3.92969" stroke="#299EFD" stroke-width="1.4" stroke-linecap="round" stroke-linejoin="round"/>
</svg>
