<svg width="20" height="20" viewBox="0 0 20 20" fill="none" xmlns="http://www.w3.org/2000/svg">
<path fill-rule="evenodd" clip-rule="evenodd" d="M8.08454 1.52211C9.91273 1.10906 11.8255 1.29803 13.5375 2.06086C13.8675 2.20792 14.2543 2.05958 14.4013 1.72955C14.5484 1.39953 14.4 1.01278 14.07 0.865724C12.1003 -0.0119393 9.89959 -0.229366 7.79619 0.24587C5.69278 0.721106 3.79935 1.86354 2.39828 3.5028C0.997207 5.14205 0.163562 7.19029 0.0216768 9.34203C-0.120209 11.4938 0.437266 13.6338 1.61096 15.4428C2.78465 17.2518 4.51168 18.633 6.53447 19.3803C8.55726 20.1276 10.7674 20.201 12.8354 19.5896C14.9033 18.9782 16.7182 17.7147 18.0093 15.9875C19.3005 14.2604 19.9988 12.1618 20 10.0053V9.14553C20 8.78423 19.7071 8.49133 19.3458 8.49133C18.9845 8.49133 18.6916 8.78423 18.6916 9.14553V10.005C18.6905 11.8792 18.0836 13.703 16.9614 15.2041C15.8391 16.7053 14.2617 17.8035 12.4644 18.3349C10.667 18.8663 8.74603 18.8025 6.9879 18.153C5.22978 17.5034 3.72872 16.303 2.70859 14.7306C1.68847 13.1583 1.20393 11.2983 1.32725 9.42812C1.45057 7.55791 2.17514 5.77767 3.3929 4.3529C4.61065 2.92813 6.25634 1.93517 8.08454 1.52211ZM19.8086 2.9911C20.0639 2.73549 20.0637 2.32127 19.8081 2.06592C19.5525 1.81056 19.1383 1.81077 18.8829 2.06638L9.99975 10.9585L7.65884 8.61755C7.40335 8.36206 6.98913 8.36206 6.73365 8.61755C6.47817 8.87303 6.47817 9.28725 6.73365 9.54273L9.53739 12.3465C9.66012 12.4692 9.82658 12.5381 10.0001 12.5381C10.1737 12.538 10.3401 12.469 10.4628 12.3462L19.8086 2.9911Z" fill="#00B69B"/>
</svg>
