<svg width="21" height="23" viewBox="0 0 21 23" fill="none" xmlns="http://www.w3.org/2000/svg">
<path fill-rule="evenodd" clip-rule="evenodd" d="M10.5292 4.35557C5.92902 4.35557 2.1998 8.08478 2.1998 12.685C2.1998 17.2852 5.92902 21.0145 10.5292 21.0145C15.1295 21.0145 18.8587 17.2852 18.8587 12.685C18.8587 8.08478 15.1295 4.35557 10.5292 4.35557ZM0.799805 12.685C0.799805 7.31159 5.15582 2.95557 10.5292 2.95557C15.9027 2.95557 20.2587 7.31159 20.2587 12.685C20.2587 18.0584 15.9027 22.4145 10.5292 22.4145C5.15582 22.4145 0.799805 18.0584 0.799805 12.685Z" fill="#FF800B"/>
<path fill-rule="evenodd" clip-rule="evenodd" d="M14.6578 16.1666C14.3971 16.4521 13.9543 16.4723 13.6688 16.2116L10.2076 13.0513C10.0624 12.9187 9.9796 12.731 9.9796 12.5343L9.9796 8.32061C9.9796 7.93401 10.293 7.62061 10.6796 7.62061C11.0662 7.62061 11.3796 7.93401 11.3796 8.32061L11.3796 12.2256L14.6128 15.1777C14.8983 15.4384 14.9184 15.8811 14.6578 16.1666Z" fill="#FF800B"/>
<path fill-rule="evenodd" clip-rule="evenodd" d="M1.1498 4.1028C0.956505 3.76799 1.07122 3.33988 1.40602 3.14658L4.88542 1.13775C5.22023 0.944449 5.64834 1.05916 5.84164 1.39397C6.03494 1.72877 5.92023 2.15688 5.58542 2.35018L2.10602 4.35902C1.77122 4.55232 1.3431 4.4376 1.1498 4.1028Z" fill="#FF800B"/>
<path fill-rule="evenodd" clip-rule="evenodd" d="M15.5445 1.39382C15.7378 1.05901 16.1659 0.944298 16.5007 1.1376L19.9802 3.14643C20.315 3.33973 20.4297 3.76784 20.2364 4.10265C20.0431 4.43745 19.615 4.55217 19.2802 4.35887L15.8007 2.35003C15.4659 2.15673 15.3512 1.72862 15.5445 1.39382Z" fill="#FF800B"/>
</svg>
