<svg width="20" height="20" viewBox="0 0 20 20" fill="none" xmlns="http://www.w3.org/2000/svg">
<path d="M2.5 5.00024H4.16667H17.5" stroke="#0060AF" stroke-width="1.4" stroke-linecap="round" stroke-linejoin="round"/>
<path d="M6.66649 5.00008V3.33341C6.66649 2.89139 6.84208 2.46746 7.15464 2.1549C7.4672 1.84234 7.89113 1.66675 8.33315 1.66675H11.6665C12.1085 1.66675 12.5324 1.84234 12.845 2.1549C13.1576 2.46746 13.3332 2.89139 13.3332 3.33341V5.00008M15.8332 5.00008V16.6667C15.8332 17.1088 15.6576 17.5327 15.345 17.8453C15.0324 18.1578 14.6085 18.3334 14.1665 18.3334H5.83315C5.39113 18.3334 4.9672 18.1578 4.65464 17.8453C4.34208 17.5327 4.16649 17.1088 4.16649 16.6667V5.00008H15.8332Z" stroke="#0060AF" stroke-width="1.4" stroke-linecap="round" stroke-linejoin="round"/>
<path d="M8.33315 9.16675V14.1667" stroke="#0060AF" stroke-width="1.4" stroke-linecap="round" stroke-linejoin="round"/>
<path d="M11.6666 9.16675V14.1667" stroke="#0060AF" stroke-width="1.4" stroke-linecap="round" stroke-linejoin="round"/>
</svg>
