<svg width="16" height="16" viewBox="0 0 16 16" fill="none" xmlns="http://www.w3.org/2000/svg">
<path d="M13.3327 13.3371V11.868C13.3327 11.0887 13.0517 10.3413 12.5516 9.79029C12.0515 9.23926 11.3733 8.92969 10.666 8.92969H5.33268C4.62544 8.92969 3.94716 9.23926 3.44706 9.79029C2.94697 10.3413 2.66602 11.0887 2.66602 11.868V13.3371" stroke="#757575" stroke-opacity="0.85" stroke-width="1.4" stroke-linecap="round" stroke-linejoin="round"/>
<path d="M7.9987 7.03704C9.47146 7.03704 10.6654 5.90946 10.6654 4.51852C10.6654 3.12758 9.47146 2 7.9987 2C6.52594 2 5.33203 3.12758 5.33203 4.51852C5.33203 5.90946 6.52594 7.03704 7.9987 7.03704Z" stroke="#757575" stroke-opacity="0.85" stroke-width="1.4" stroke-linecap="round" stroke-linejoin="round"/>
</svg>
