<svg width="16" height="16" viewBox="0 0 16 16" fill="none" xmlns="http://www.w3.org/2000/svg">
<path d="M1.33398 7.99967C1.33398 7.99967 3.75823 3.33301 8.00065 3.33301C12.2431 3.33301 14.6673 7.99967 14.6673 7.99967C14.6673 7.99967 12.2431 12.6663 8.00065 12.6663C3.75823 12.6663 1.33398 7.99967 1.33398 7.99967Z" stroke="#0060AF" stroke-opacity="0.8" stroke-width="1.2" stroke-linecap="round" stroke-linejoin="round"/>
<path d="M8.00178 9.75C9.00593 9.75 9.81996 8.9665 9.81996 8C9.81996 7.0335 9.00593 6.25 8.00178 6.25C6.99762 6.25 6.18359 7.0335 6.18359 8C6.18359 8.9665 6.99762 9.75 8.00178 9.75Z" stroke="#0060AF" stroke-opacity="0.8" stroke-width="1.2" stroke-linecap="round" stroke-linejoin="round"/>
</svg>
